HW3
…
Find 5 most common words for each term after removing stop words

dat %>%
  unnest_tokens(words, abstract) %>%
  anti_join(stop_words, by = c("words" = "word")) %>%
  group_by(term) %>%
  count(words, sort = TRUE) %>%
  filter(!grepl('[0-9]', words)) %>%
  arrange(term, desc(n)) %>%  
  group_by(term) %>%
  slice(1:5)

# A tibble: 25 × 3
# Groups:   term [5]
   term            words           n
   <chr>           <chr>       <int>
 1 covid           covid        7275
 2 covid           patients     2293
 3 covid           disease       943
 4 covid           pandemic      800
 5 covid           coronavirus   647
 6 cystic fibrosis fibrosis      867
 7 cystic fibrosis cystic        862
 8 cystic fibrosis cf            625
 9 cystic fibrosis patients      586
10 cystic fibrosis disease       400
# ℹ 15 more rows
…
dat %>%
  unnest_tokens(abstract, abstract) %>%
  anti_join(stop_words, by = c("abstract" = "word")) %>%
  group_by(term) %>%
  count(abstract, term) %>%
  bind_tf_idf(abstract, term, n) %>%
  filter(!grepl('[0-9]', term)) %>%
  arrange(term, desc(tf_idf)) %>%  
  group_by(term) %>%
  slice(1:5)

# A tibble: 25 × 6
# Groups:   term [5]
   term            abstract        n      tf   idf  tf_idf
   <chr>           <chr>       <int>   <dbl> <dbl>   <dbl>
 1 covid           covid        7275 0.0647  1.61  0.104  
 2 covid           pandemic      800 0.00711 1.61  0.0114 
 3 covid           coronavirus   647 0.00575 1.61  0.00926
 4 covid           sars          372 0.00331 1.61  0.00532
 5 covid           cov           334 0.00297 1.61  0.00478
 6 cystic fibrosis cf            625 0.0234  0.916 0.0215 
 7 cystic fibrosis fibrosis      867 0.0325  0.511 0.0166 
 8 cystic fibrosis cystic        862 0.0323  0.511 0.0165 
 9 cystic fibrosis cftr           86 0.00322 1.61  0.00518
10 cystic fibrosis sweat          83 0.00311 1.61  0.00500
# ℹ 15 more rows
…
